ProductID,Product Name,Brand,Category
MI/SNA-81654,"Snark SN-5 Tuner for Guitar, Bass and Violin",Snark,Musical Instruments
MI/STU-67796,"Studio Microphone Mic Wind Screen Pop Filter/ Swivel Mount, 360° Flexible Gooseneck Holder",Generic,Musical Instruments
MI/MUS-73312,Musician's Gear Tubular Guitar Stand Black,Musician's Gear,Musical Instruments
MI/STR-01505,String Swing CC01K Hardwood Home & Studio Guitar Hanger,String Swing,Musical Instruments
MI/DUN-82082,"Dunlop 5005 Pick Holder, Each (5005)",Jim Dunlop,Musical Instruments
C&A/SYB-73793,"Syba SD-CM-UAUD USB Stereo Audio Adapter, C-Media Chipset, RoHS",Syba,Computers & Accessories
MI/ERN-93610,Ernie Ball 2221 Regular Slinky Nickel Wound Set (10 - 46),Ernie Ball,Musical Instruments
MI/SNA-56275,Snark SN-8 Super Tight All Instrument Tuner,Snark,Musical Instruments
MI/SNA-77975,Snark SN6 Clip-On Ukulele Tuner,Snark,Musical Instruments
MI/LIV-78617,"Live For Music, Acoustic Guitar Capo",The Instrument Store,Musical Instruments
